ticker	name	class	sharevalue	changevalue	percentchange	shares
VRSN	VERISIGN INC	COM	1,091,203	-1,858	(0.17)	6,915,100
ALGN	ALIGN TECHNOLOGY INC	COM	1,067,139	-23,519	(2.16)	2,894,800
DPZ	DOMINOS PIZZA INC	COM	1,014,983	-23,702	(2.28)	3,451,500
HUM	HUMANA INC	COM	938,401	-156,968	(14.33)	2,783,500
ARDM	NOVO-NORDISK A S	ADR	918,065	98,366	12	19,142,300
PANW	PALO ALTO NETWORKS INC	COM	848,007	-163,970	(16.2)	3,725,700
AAPL	APPLE INC	COM	845,108	845,108	New	3,818,833
VMW	VMWARE INC	CL A COM	803,679	229,794	40.04	5,289,800
PEP	PEPSICO INC	COM	784,992	-238,492	(23.3)	6,962,850
AMGN	AMGEN INC	COM	746,647	-23,890	(3.1)	3,803,600
VRTX	VERTEX PHARMACEUTICALS INC	COM	726,964	215,310	42.08	4,050,617
BMY	BRISTOL MYERS SQUIBB CO	COM	646,649	-244,081	(27.4)	10,547,200
ISRG	INTUITIVE SURGICAL INC	COM NEW	631,786	-165,476	(20.76)	1,174,410
CCI	CROWN CASTLE INTL CORP NEW	COM	597,842	-55,515	(8.5)	5,289,703
ABMD	ABIOMED INC	COM	585,647	151,675	34.95	1,551,423
CBOE	CBOE GLOBAL MARKETS INC	COM	541,494	71,330	15.17	5,190,200
DVMT	DELL TECHNOLOGIES INC	COM CL V	534,214	76,507	16.72	5,549,700
IDXX	IDEXX LABS INC	COM	526,316	19,653	3.88	2,169,929
JNJ	JOHNSON & JOHNSON	COM	513,618	337,244	191.21	3,740,300
PGR	PROGRESSIVE CORP OHIO	COM	488,626	80,130	19.62	7,094,900
CL	COLGATE PALMOLIVE CO	COM	482,532	-135,541	(21.93)	7,200,900
FE	FIRSTENERGY CORP	COM	450,398	84,462	23.08	12,007,408
AZPN	ASPEN TECHNOLOGY INC	COM	439,587	22,180	5.31	3,862,800
WCG	WELLCARE HEALTH PLANS INC	COM	432,567	-19,744	(4.37)	1,393,400
BBY	BEST BUY INC	COM	412,773	-20,642	(4.76)	5,279,100
NVDA	NVIDIA CORP	COM	405,015	-178,666	(30.61)	1,489,793
FB	FACEBOOK INC	CL A	402,299	402,299	New	2,467,488
MOH	MOLINA HEALTHCARE INC	COM	394,699	99,749	33.82	2,805,850
ETSY	ETSY INC	COM	388,254	16,574	4.46	8,236,200
AEP	AMERICAN ELEC PWR INC	COM	381,846	-38,012	(9.05)	5,253,800
BP	BP PLC	SPONSORED ADR	380,689	72,069	23.35	9,057,544
CELG	CELGENE CORP	COM	373,549	140,991	60.63	4,129,438
RL	RALPH LAUREN CORP	CL A	372,500	118,649	46.74	2,864,503
GSK	GLAXOSMITHKLINE PLC	SPONSORED ADR	369,444	48,177	15.00	9,329,400
FTNT	FORTINET INC	COM	365,923	-44,650	(10.88)	4,278,800
AMT	AMERICAN TOWER CORP NEW	COM	361,979	-64,233	(15.07)	2,470,000
CLX	CLOROX CO DEL	COM	360,058	-41,665	(10.37)	2,388,600
AMZN	AMAZON COM INC	COM	358,312	-637,156	(64.01)	183,555
NFLX	NETFLIX INC	COM	348,994	-101,082	(22.46)	1,000,900
SPGI	S&P GLOBAL INC	COM	346,958	79,028	29.50	1,677,100
FFIV	F5 NETWORKS INC	COM	343,714	1,749	.51	1,807,974
DUK	DUKE ENERGY CORP NEW	COM NEW	335,700	-58,583	(14.86)	4,070,567
GDDY	GODADDY INC	CL A	333,798	29,312	9.63	4,154,300
UDR	UDR INC	COM	333,329	15,581	4.90	8,358,300
WMT	WALMART INC	COM	318,395	297,610	1,431.81	3,322,500
NVS	NOVARTIS A G	SPONSORED ADR	315,367	148,806	89.34	3,856,288
EVRG	EVERGY INC	COM	313,489	313,489	New	5,377,175
GLPI	GAMING & LEISURE PPTYS INC	COM	312,345	40,512	14.90	9,056,089
ELS	EQUITY LIFESTYLE PPTYS INC	COM	294,257	20,601	7.53	3,063,900
ANET	ARISTA NETWORKS INC	COM	292,073	60,754	26.26	1,093,700
HLF	HERBALIFE NUTRITION LTD	COM SHS	291,164	159,824	121.69	5,349,325
TPR	TAPESTRY INC	COM	290,924	2,907	1.01	5,915,500
WWE	WORLD WRESTLING ENTMT INC	CL A	288,741	94,304	48.50	3,318,100
DTE	DTE ENERGY CO	COM	284,902	-31,296	(9.9)	2,522,150
AVB	AVALONBAY CMNTYS INC	COM	279,260	-12,273	(4.21)	1,524,514
ICLR	ICON PLC	SHS	278,385	1,526	.55	1,933,360
NOW	SERVICENOW INC	COM	276,048	-176,455	(39)	1,401,400
WM	WASTE MGMT INC DEL	COM	272,308	-93,095	(25.48)	2,966,000
PSTG	PURE STORAGE INC	CL A	269,269	-33,197	(10.98)	9,568,900
AEE	AMEREN CORP	COM	267,949	18,442	7.39	4,100,847
RYAAY	RYANAIR HLDGS PLC	SPONSORED ADR NE	265,354	-35,423	(11.78)	2,766,408
USNA	USANA HEALTH SCIENCES INC	COM	260,025	17,784	7.34	2,105,466
CMCSA	COMCAST CORP NEW	CL A	256,264	-9,694	(3.65)	7,084,976
PBR	PETROLEO BRASILEIRO SA PETROBR	SPONSORED ADR	252,708	59,613	30.87	22,890,250
AIV	APARTMENT INVT & MGMT CO	CL A	248,491	-10,504	(4.06)	5,682,385
PM	PHILIP MORRIS INTL INC	COM	244,401	-120,470	(33.02)	3,109,431
WCN	WASTE CONNECTIONS INC	COM	239,863	10,008	4.35	2,976,711
MKL	MARKEL CORP	COM	238,937	22,424	10.36	199,041
ETR	ENTERGY CORP NEW	COM	235,248	-45,277	(16.14)	2,777,100
MED	MEDIFAST INC	COM	234,920	110	.05	993,066
SODA	SODASTREAM INTERNATIONAL LTD	USD SHS	233,819	15,942	7.32	1,639,800
EQNR	EQUINOR ASA	SPONSORED ADR	229,407	-23,642	(9.34)	9,213,123
ED	CONSOLIDATED EDISON INC	COM	227,123	-10,907	(4.58)	2,836,200
HSY	HERSHEY CO	COM	226,764	5,047	2.28	2,188,000
ABBV	ABBVIE INC	COM	222,456	57,126	34.55	2,362,283
HAE	HAEMONETICS CORP	COM	220,646	72,835	49.28	1,969,700
WEC	WEC ENERGY GROUP INC	COM	213,894	-2,310	(1.07)	3,119,802
PLD	PROLOGIS INC	COM	213,432	70,537	49.36	3,233,814
CHL	CHINA MOBILE LIMITED	SPONSORED ADR	211,121	22,038	11.66	4,405,700
LULU	LULULEMON ATHLETICA INC	COM	210,258	-32,653	(13.44)	1,394,100
MSFT	MICROSOFT CORP	COM	209,902	209,902	New	1,939,767
IBM	INTERNATIONAL BUSINESS MACHS	COM	207,804	-12,116	(5.51)	1,428,700
FIZZ	NATIONAL BEVERAGE CORP	COM	207,370	17,892	9.44	1,784,900
ES	EVERSOURCE ENERGY	COM	204,502	-26,105	(11.32)	3,255,880
AMD	ADVANCED MICRO DEVICES INC	COM	203,360	171,659	541.49	7,427,326
MOMO	MOMO INC	ADR	202,936	103,850	104.81	4,494,700
WAT	WATERS CORP	COM	202,153	-41,308	(16.97)	1,050,200
GILD	GILEAD SCIENCES INC	COM	198,778	-164,690	(45.31)	2,752,400
CTXS	CITRIX SYS INC	COM	194,312	156,509	414.01	1,751,190
NRG	NRG ENERGY INC	COM NEW	194,024	-55,826	(22.34)	5,575,416
NTAP	NETAPP INC	COM	193,890	141,489	270.01	2,332,932
TU	TELUS CORP	COM	193,085	3,049	1.60	5,262,600
ORI	OLD REP INTL CORP	COM	191,432	-24,543	(11.36)	8,444,285
CRL	CHARLES RIV LABS INTL INC	COM	191,413	6,948	3.77	1,515,300
REGN	REGENERON PHARMACEUTICALS	COM	190,377	-399	(0.21)	481,462
ACGL	ARCH CAP GROUP LTD	ORD	189,414	548	.29	6,255,400
LMT	LOCKHEED MARTIN CORP	COM	189,102	40,738	27.46	575,600
SAFM	SANDERSON FARMS INC	COM	188,851	-885	(0.47)	1,789,717
GS	GOLDMAN SACHS GROUP INC	COM	187,516	164,546	716.35	801,657
SBAC	SBA COMMUNICATIONS CORP NEW	CL A	185,363	3,235	1.78	1,171,849
DIS	DISNEY WALT CO	COM DISNEY	184,821	97,665	112.06	1,665,507
UTHR	UNITED THERAPEUTICS CORP DEL	COM	184,379	2,645	1.46	1,556,200
RNG	RINGCENTRAL INC	CL A	182,579	6,000	3.40	1,944,403
FIVE	FIVE BELOW INC	COM	180,942	148,128	451.42	1,382,400
CCOI	COGENT COMMUNICATIONS HLDGS IN	COM NEW	180,753	15,683	9.50	3,289,400
DHR	DANAHER CORP DEL	COM	179,827	78,495	77.46	1,718,200
BCE	BCE INC	COM NEW	176,282	32,545	22.64	4,392,771
TD	TORONTO DOMINION BK ONT	COM NEW	176,179	36,258	25.91	2,916,380
MS	MORGAN STANLEY	COM NEW	175,074	175,074	New	3,630,727
RNR	RENAISSANCERE HOLDINGS LTD	COM	174,807	42,195	31.82	1,389,122
ABEV	AMBEV SA	SPONSORED ADR	174,757	165,488	1,785.38	38,834,997
EIX	EDISON INTL	COM	174,129	12,392	7.66	2,612,200
EA	ELECTRONIC ARTS INC	COM	173,797	-333	(0.19)	1,512,464
TSM	TAIWAN SEMICONDUCTOR MFG LTD	SPONSORED ADR	173,054	159,856	1,211.24	3,855,920
CB	CHUBB LIMITED	COM	171,645	-49,016	(22.21)	1,256,461
CABO	CABLE ONE INC	COM	169,860	2,468	1.47	199,600
A	AGILENT TECHNOLOGIES INC	COM	166,579	-25,423	(13.24)	2,471,500
NEE	NEXTERA ENERGY INC	COM	166,507	-63,488	(27.6)	967,500
NGG	NATIONAL GRID PLC	SPONSORED ADR NE	164,894	26,203	18.89	3,147,428
W	WAYFAIR INC	CL A	162,720	13,171	8.81	1,215,595
HON	HONEYWELL INTL INC	COM	161,231	62,894	63.96	990,300
ENDP	ENDO INTL PLC	SHS	160,749	32,110	24.96	10,040,549
EC	ECOPETROL S A	SPONSORED ADS	159,586	417	.26	7,149,900
MAA	MID AMER APT CMNTYS INC	COM	157,623	-71,560	(31.22)	1,534,041
NTNX	NUTANIX INC	CL A	157,527	20,157	14.67	3,068,900
DLB	DOLBY LABORATORIES INC	COM	156,854	-3,285	(2.05)	2,234,700
WIX	WIX COM LTD	SHS	155,891	-19,051	(10.89)	1,440,105
BRO	BROWN & BROWN INC	COM	155,457	-16,978	(9.85)	5,044,027
ESS	ESSEX PPTY TR INC	COM	154,730	54,840	54.90	628,626
KGC	KINROSS GOLD CORP	COM NO PAR	154,391	19,084	14.10	54,555,299
MBT	MOBILE TELESYSTEMS PJSC	SPONSORED ADR	154,074	11,833	8.32	20,820,850
VEEV	VEEVA SYS INC	CL A COM	152,350	2,633	1.76	1,492,600
VGR	VECTOR GROUP LTD	COM	152,080	-3,085	(1.99)	9,692,773
NOC	NORTHROP GRUMMAN CORP	COM	151,973	18,422	13.79	505,700
SATS	ECHOSTAR CORP	CL A	150,037	5,335	3.69	3,180,780
FNV	FRANCO NEVADA CORP	COM	149,975	16,735	12.56	2,458,200
AGN	ALLERGAN PLC	SHS	149,876	149,325	27,066.48	787,828
PSA	PUBLIC STORAGE	COM	149,785	5,534	3.84	716,300
CI	CIGNA CORPORATION	COM	148,609	89,184	150.08	788,000
GDOT	GREEN DOT CORP	CL A	148,091	12,268	9.03	1,734,700
BURL	BURLINGTON STORES INC	COM	147,767	136,290	1,187.50	875,500
HCA	HCA HEALTHCARE INC	COM	144,979	94,627	187.93	1,094,431
SNP	CHINA PETE & CHEM CORP	SPON ADR H SHS	143,704	3,830	2.74	1,533,500
VOD	VODAFONE GROUP PLC NEW	SPONSORED ADR	140,255	2,074	1.50	6,538,686
GD	GENERAL DYNAMICS CORP	COM	139,909	40,470	40.70	718,550
HEI	HEICO CORP NEW	CL A	139,678	8,646	6.60	1,825,852
ORBK	ORBOTECH LTD	ORD	139,669	-19,177	(12.07)	2,287,782
JAZZ	JAZZ PHARMACEUTICALS PLC	SHS USD	138,894	-20,948	(13.11)	832,800
SFM	SPROUTS FMRS MKT INC	COM	138,305	-13,518	(8.9)	4,849,400
AXP	AMERICAN EXPRESS CO	COM	138,084	138,084	New	1,301,700
CCMP	CABOT MICROELECTRONICS CORP	COM	136,037	7,884	6.15	1,263,109
MSG	MADISON SQUARE GARDEN CO NEW	CL A	134,524	15,728	13.24	436,199
LGND	LIGAND PHARMACEUTICALS INC	COM NEW	133,250	40,497	43.66	523,494
XEL	XCEL ENERGY INC	COM	132,032	-12,104	(8.4)	2,712,800
SKYW	SKYWEST INC	COM	131,656	12,129	10.15	2,160,068
EVR	EVERCORE INC	CLASS A	130,977	29,714	29.34	1,296,800
LAMR	LAMAR ADVERTISING CO NEW	CL A	130,352	16,900	14.90	1,679,800
BAK	BRASKEM S A	SP ADR PFD A	129,276	1,028	.80	4,376,300
TEAM	ATLASSIAN CORP PLC	CL A	128,201	-14,818	(10.36)	1,473,400
FBR	FIBRIA CELULOSE S A	SP ADR REP COM	127,323	23,109	22.18	6,758,128
TIF	TIFFANY & CO NEW	COM	127,158	90,051	242.68	1,034,900
ULTA	ULTA BEAUTY INC	COM	126,177	8,599	7.31	441,486
RY	ROYAL BK CDA MONTREAL QUE	COM	125,963	-6,855	(5.16)	1,602,377
STRA	STRATEGIC ED INC	COM	125,264	-7,263	(5.48)	942,188
POST	POST HLDGS INC	COM	124,334	-43,205	(25.79)	1,269,100
RCI	ROGERS COMMUNICATIONS INC	CL B	122,893	-4,811	(3.77)	2,385,800
CHH	CHOICE HOTELS INTL INC	COM	121,849	6,802	5.91	1,553,200
DNB	DUN & BRADSTREET CORP DEL NEW	COM	121,538	-21,633	(15.11)	851,700
DATA	TABLEAU SOFTWARE INC	CL A	120,609	-20,206	(14.35)	1,058,900
UGI	UGI CORP NEW	COM	120,487	18,144	17.73	2,224,650
TSE	TRINSEO S A	SHS	120,301	3,928	3.38	1,595,500
FIVN	FIVE9 INC	COM	119,770	-2,614	(2.14)	2,510,900
EBS	EMERGENT BIOSOLUTIONS INC	COM	119,258	11,461	10.63	2,066,511
LOGI	LOGITECH INTL S A	SHS	118,884	-225	(0.19)	2,553,900
OEC	ORION ENGINEERED CARBONS S A	COM	118,727	22,804	23.77	3,538,800
MKSI	MKS INSTRUMENT INC	COM	118,621	32,772	38.17	1,393,902
QLYS	QUALYS INC	COM	118,276	-16,480	(12.23)	1,306,200
LANC	LANCASTER COLONY CORP	COM	116,217	929	.81	738,400
MSI	MOTOROLA SOLUTIONS INC	COM NEW	115,482	-65,119	(36.06)	910,815
MTB	M & T BK CORP	COM	114,142	113,401	15,311.44	638,342
HFC	HOLLYFRONTIER CORP	COM	113,666	49,401	76.87	1,605,232
BOX	BOX INC	CL A	112,589	24,233	27.43	4,586,100
CHT	CHUNGHWA TELECOM CO LTD	SPON ADR NEW11	112,311	2,650	2.42	3,225,484
HRC	HILL ROM HLDGS INC	COM	112,114	-15,320	(12.02)	1,180,400
NEWR	NEW RELIC INC	COM	111,500	68,372	158.53	1,091,000
ITW	ILLINOIS TOOL WKS INC	COM	111,494	111,494	New	792,820
CFFN	CAPITOL FED FINL INC	COM	111,274	157	.14	8,366,497
WDFC	WD-40 CO	COM	111,063	-3,322	(2.91)	608,400
PCH	POTLATCHDELTIC CORPORATION	COM	110,981	-14,441	(11.51)	2,346,320
CMI	CUMMINS INC	COM	110,046	63,088	134.35	780,300
CVLT	COMMVAULT SYSTEMS INC	COM	109,986	16,253	17.34	1,599,800
DG	DOLLAR GEN CORP NEW	COM	109,579	73,651	205.00	988,800
BIIB	BIOGEN INC	COM	109,197	-103,988	(48.78)	321,500
PAG	BANK N S HALIFAX	COM	109,118	38,988	55.59	1,917,386
CWST	CASELLA WASTE SYS INC	CL A	108,875	2,337	2.19	3,442,142
PNW	PINNACLE WEST CAP CORP	COM	108,784	23,447	27.48	1,366,800
LNG	CHENIERE ENERGY INC	COM NEW	108,606	49,054	82.37	1,649,800
CMG	CHIPOTLE MEXICAN GRILL INC	COM	107,541	51,625	92.33	223,100
FCFS	FIRSTCASH INC	COM	107,279	30,367	39.48	1,347,724
RSG	REPUBLIC SVCS INC	COM	106,731	-40,984	(27.75)	1,429,561
KSS	KOHLS CORP	COM	106,082	45,959	76.44	1,321,900
XLNX	XILINX INC	COM	104,992	101,449	2,862.97	1,360,005
WELL	WELLTOWER INC	COM	103,741	-33,339	(24.32)	1,562,600
HZNP	HORIZON PHARMA PLC	SHS	103,295	34,931	51.10	5,014,300
VVC	VECTREN CORP	COM	102,402	5,155	5.30	1,430,200
CME	CME GROUP INC	COM CL A	102,146	102,146	New	587,788
WIFI	BOINGO WIRELESS INC	COM	101,582	-2,269	(2.19)	3,084,800
HAL	HALLIBURTON CO	COM	100,122	-77	(0.08)	2,720,695
FR	FIRST INDUSTRIAL REALTY TRUST	COM	99,507	4,508	4.75	3,112,500
CEO	CNOOC LTD	SPONSORED ADR	99,441	4,326	4.55	569,600
MSCI	MSCI INC	COM	99,284	-19,101	(16.13)	554,100
POR	PORTLAND GEN ELEC CO	COM NEW	99,269	-5,062	(4.85)	2,110,300
LOPE	GRAND CANYON ED INC	COM	98,743	-2,860	(2.82)	842,300
PGTI	PGT INNOVATIONS INC	COM	98,300	5,889	6.37	3,877,729
LYV	LIVE NATION ENTERTAINMENT INC	COM	98,233	-38,149	(27.97)	1,967,800
GIS	DIAGEO P L C	SPON ADR NEW	97,598	-5,182	(5.04)	702,500
TDS	TELEPHONE & DATA SYS INC	COM NEW	97,171	1,686	1.77	3,308,508
MRO	MARATHON OIL CORP	COM	96,868	85,747	771.06	4,720,646
TFSL	TFS FINL CORP	COM	96,744	-590	(0.61)	6,209,522
IDA	IDACORP INC	COM	96,235	6,351	7.07	963,700
KSU	KANSAS CITY SOUTHERN	COM NEW	95,826	38,692	67.72	811,600
SUI	SUN CMNTYS INC	COM	95,619	20,007	26.46	948,700
CLH	CLEAN HARBORS INC	COM	95,159	6,367	7.17	1,321,102
BIO	BIO RAD LABS INC	CL A	95,063	-12,769	(11.84)	303,000
NSC	NORFOLK SOUTHERN CORP	COM	94,377	-24,121	(20.36)	532,900
CSGS	CSG SYS INTL INC	COM	93,649	-1,926	(2.02)	2,475,522
BPY	BROOKFIELD PPTY PARTNERS L P	UNIT LTD PARTN	93,449	85,928	1,142.41	4,762,952
H	HYATT HOTELS CORP	COM CL A	93,442	16,421	21.32	1,227,400
LH	LABORATORY CORP AMER HLDGS	COM NEW	93,242	-59,573	(38.98)	556,105
CPA	COPA HOLDINGS SA	CL A	93,142	17,015	22.35	1,216,902
MA	MASTERCARD INCORPORATED	CL A	92,943	-68,478	(42.42)	440,300
ICUI	ICU MED INC	COM	92,750	1,009	1.10	312,500
BG	BUNGE LIMITED	COM	91,091	40,870	81.38	1,429,997
PNM	PNM RES INC	COM	90,710	1,019	1.14	2,305,200
CM	CDN IMPERIAL BK COMM TORONTO O	COM	89,958	-10,697	(10.63)	963,764
CMS	CMS ENERGY CORP	COM	89,846	-29,799	(24.91)	1,793,700
WSM	WILLIAMS SONOMA INC	COM	89,783	49,881	125.01	1,283,900
D	DOMINION ENERGY INC	COM	89,053	-67,658	(43.17)	1,246,200
TMO	THERMO FISHER SCIENTIFIC INC	COM	88,967	3,374	3.94	377,044
GHDX	GENOMIC HEALTH INC	COM	87,738	13,884	18.80	1,404,924
RIG	TRANSOCEAN LTD	REG SHS	87,043	13,026	17.60	8,022,428
STMP	STAMPS COM INC	COM NEW	86,897	35,721	69.80	357,600
TEVA	TEVA PHARMACEUTICAL INDS LTD	SPONSORED ADR	86,793	67,422	348.06	4,036,863
CRVL	CORVEL CORP	COM	86,398		New	1,461,900
RYAM	RAYONIER ADVANCED MATLS INC	COM	85,947	-7,357	(7.89)	4,144,000
AA	ALCOA CORP	COM	85,530	10,984	14.73	2,086,096
BCOR	BLUCORA INC	COM	85,473	6,747	8.57	2,452,600
PODD	INSULET CORP	COM	84,553	-18,997	(18.35)	814,500
BHC	BAUSCH HEALTH COS INC	COM	84,492	-18,207	(17.73)	4,093,589
TLK	P T TELEKOMUNIKASI INDONESIA	SPONSORED ADR	84,137	-3,085	(3.54)	3,719,600
MORN	MORNINGSTAR INC	COM	83,832	7,673	10.08	600,900
EQC	EQUITY COMWLTH	COM SH BEN INT	83,775	-2,816	(3.25)	2,617,975
TER	TERADYNE INC	COM	83,172	-9,532	(10.28)	2,095,000
USPH	U S PHYSICAL THERAPY INC	COM	82,487	3,612	4.58	653,100
HTZ	HERTZ GLOBAL HLDGS INC	COM	82,333	8,272	11.17	4,551,300
BGCP	BGC PARTNERS INC	CL A	82,130	10,730	15.03	6,754,148
KRNY	KEARNY FINL CORP MD	COM	81,877	-2,932	(3.46)	6,020,363
PXD	PIONEER NAT RES CO	COM	81,774	13,073	19.03	504,188
INGN	INOGEN INC	COM	81,744	13,539	19.85	309,814
SRDX	SURMODICS INC	COM	81,324	1,901	2.39	1,022,300
COR	CORESITE RLTY CORP	COM	81,276	-148	(0.18)	711,700
MCD	MCDONALDS CORP	COM	81,262	-96,127	(54.19)	495,800
RYN	RAYONIER INC	COM	81,162	16,834	26.17	2,370,400
DEI	DOUGLAS EMMETT INC	COM	80,968	2,369	3.01	2,105,800
PRU	PRUDENTIAL FINL INC	COM	80,868	19,230	31.20	822,747
BRC	BRADY CORP	CL A	80,575	5,194	6.89	1,948,600
PNK	PINNACLE ENTMT INC NEW	COM	80,275	16,273	25.43	2,414,300
ZBRA	ZEBRA TECHNOLOGIES CORP	CL A	80,178	24,688	44.49	477,731
CNI	CANADIAN NATL RY CO	COM	80,042	-35,034	(30.45)	928,773
FSV	FIRSTSERVICE CORP NEW	SUB VTG SH	79,853	2,569	3.32	921,134
WMB	WILLIAMS COS INC DEL	COM	79,693	28,020	54.23	2,788,407
LW	LAMB WESTON HLDGS INC	COM	79,294	-18,679	(19.07)	1,186,500
TECH	BIO TECHNE CORP	COM	79,185	8,324	11.75	413,800
NLY	ANNALY CAP MGMT INC	COM	78,990	-11,414	(12.63)	7,530,020
LPLA	LPL FINL HLDGS INC	COM	78,481	28,994	58.59	1,219,400
TTD	THE TRADE DESK INC	COM CL A	78,382	37,793	93.11	552,105
TTM	TATA MTRS LTD	SPONSORED ADR	78,162	15,392	24.52	4,148,700
AEIS	ADVANCED ENERGY INDS	COM	78,084	16,272	26.32	1,392,622
OXY	OCCIDENTAL PETE CORP DEL	COM	77,934	-50,236	(39.2)	1,016,748
CVX	CHEVRON CORP NEW	COM	77,846	35,686	84.65	679,284
LDOS	LEIDOS HLDGS INC	COM	77,822	-23,114	(22.9)	1,114,450
IAG	IAMGOLD CORP	COM	77,541	-15,362	(16.54)	20,351,900
WY	WEYERHAEUSER CO	COM	77,377	77,377	New	2,271,781
NSP	INSPERITY INC	COM	77,306	7,351	10.51	649,900
ENTA	ENANTA PHARMACEUTICALS INC	COM	77,229	2,954	3.98	878,500
CROX	CROCS INC	COM	76,687	6,078	8.61	3,631,000
BSAC	BANCO SANTANDER CHILE NEW	SP ADR REP COM	76,423	-1,929	(2.46)	2,511,427
MGLN	MAGELLAN HEALTH INC	COM NEW	75,720	-2,526	(3.23)	992,400
MTG	MGIC INVT CORP WIS	COM	75,501	21,014	38.57	5,816,754
CVCO	CAVCO INDS INC DEL	COM	75,193	-4,400	(5.53)	307,600
SPPI	SPECTRUM PHARMACEUTICALS INC	COM	75,167	-44,078	(36.96)	3,517,400
GOLD	RANDGOLD RES LTD	ADR	74,948	30,362	68.10	1,199,362
CIGI	COLLIERS INTL GROUP INC	SUB VTG SHS	74,931	3,417	4.78	958,200
EXEL	EXELIXIS INC	COM	74,901	16,417	28.07	4,037,810
AON	AON PLC	SHS CL A	74,335	9,856	15.29	495,501
BMO	BANK MONTREAL QUE	COM	74,253	35,097	89.64	909,295
KAR	KAR AUCTION SVCS INC	COM	73,936	-5,588	(7.03)	1,161,600
CAT	CATERPILLAR INC DEL	COM	73,811	20,986	39.73	522,300
THG	HANOVER INS GROUP INC	COM	73,787	-14,187	(16.13)	605,900
SNPS	SYNOPSYS INC	COM	73,775	-40,667	(35.54)	722,934
ZBH	ZIMMER BIOMET HLDGS INC	COM	73,773	36,268	96.70	596,000
PAAS	PAN AMERICAN SILVER CORP	COM	73,048	7,604	11.62	4,882,905
FL	FOOT LOCKER INC	COM	72,826	72,826	New	1,558,100
CLI	MACK CALI RLTY CORP	COM	72,171	3,801	5.56	3,491,605
MTN	VAIL RESORTS INC	COM	71,797	-5,469	(7.08)	244,200
CARB	CARBONITE INC	COM	71,690	-1,485	(2.03)	1,675,000
T	AT&T INC	COM	71,654	-56,791	(44.21)	2,230,815
CXO	CONCHO RES INC	COM	71,082	18,404	34.94	534,812
OGE	OGE ENERGY CORP	COM	70,779	-34,486	(32.76)	1,911,400
SRPT	SAREPTA THERAPEUTICS INC	COM	70,710	34,208	93.71	495,478
CSGP	COSTAR GROUP INC	COM	70,667	-20,314	(22.33)	162,800
BTU	PEABODY ENERGY CORP NEW	COM	70,407	-1,375	(1.92)	1,654,300
EW	EDWARDS LIFESCIENCES CORP	COM	69,888	-72,417	(50.89)	494,500
FIS	FIDELITY NATL INFORMATION SVCS	COM	69,789	32,407	86.69	649,501
CHKP	CHECK POINT SOFTWARE TECH LTD	ORD	69,429	5,381	8.40	601,531
CFG	CITIZENS FINL GROUP INC	COM	69,418	31,094	81.13	1,692,700
HD	HOME DEPOT INC	COM	69,149	-658,162	(90.49)	335,300
EHC	ENCOMPASS HEALTH CORP	COM	69,136	36,437	111.43	869,200
JJSF	J & J SNACK FOODS CORP	COM	69,125	-637	(0.91)	466,400
SFLY	SHUTTERFLY INC	COM	68,944	17,058	32.88	948,068
KOF	COCA COLA FEMSA S A B DE C V	SPON ADR REP L	68,835	10,763	18.53	1,165,900
ORA	ORMAT TECHNOLOGIES INC	COM	68,462	-12,053	(14.97)	1,297,857
BNCL	BENEFICIAL BANCORP INC	COM	68,206	560	.83	3,864,370
EE	EL PASO ELEC CO	COM NEW	68,100	-12,770	(15.79)	1,097,500
PRSC	PROVIDENCE SVC CORP	COM	68,047	1,930	2.92	1,033,208
CECO	CAREER EDUCATION CORP	COM	67,780	4,128	6.49	4,497,662
CNDT	CONDUENT INC	COM	67,645	-19,542	(22.41)	2,963,000
DECK	DECKERS OUTDOOR CORP	COM	67,643	15,985	30.94	575,100
KMPR	KEMPER CORP DEL	COM	67,631	-10,348	(13.27)	802,737
LUV	SOUTHWEST AIRLS CO	COM	67,179	67,179	New	1,085,280
SR	SPIRE INC	COM	67,025	10,454	18.48	885,400
SRC	SPIRIT RLTY CAP INC NEW	COM	66,966	42,055	168.82	8,029,500
IGT	INTERNATIONAL GAME TECHNOLOGY	SHS USD	66,523	-35,391	(34.73)	3,484,700
HIW	HIGHWOODS PPTYS INC	COM	66,220	-18,301	(21.65)	1,363,400
PHI	PLDT INC	SPONSORED ADR	66,154	2,248	3.52	2,581,100
WDC	WESTERN DIGITAL CORP	COM	65,469	-71,901	(52.34)	1,134,849
MASI	MASIMO CORP	COM	65,320	4,861	8.04	552,626
DE	DEERE & CO	COM	65,001	-162	(0.25)	440,300
GTY	GETTY RLTY CORP NEW	COM	64,862	5,380	9.04	2,261,586
NUS	NU SKIN ENTERPRISES INC	CL A	64,648	21,856	51.08	814,000
DRI	DARDEN RESTAURANTS INC	COM	64,334	57,530	845.53	539,900
IFF	INTERNATIONAL FLAVORS&FRAGRANC	COM	64,330	-2,198	(3.3)	506,300
CORT	CORCEPT THERAPEUTICS INC	COM	64,312	-6,706	(9.44)	4,345,400
NOVT	NOVANTA INC	COM	64,068	-18,807	(22.69)	846,900
ENVA	ENOVA INTL INC	COM	64,050	27,734	76.37	1,955,726
M	MACYS INC	COM	64,020	-76,950	(54.59)	1,802,864
IP	INTL PAPER CO	COM	63,976	7,327	12.94	1,237,200
LPSN	LIVEPERSON INC	COM	63,772	-8,580	(11.86)	2,411,021
RTN	RAYTHEON CO	COM NEW	63,040	-80,412	(56.06)	314,600
AFG	AMERICAN FINL GROUP INC OHIO	COM	62,972	-1,294	(2.01)	559,600
WRE	WASHINGTON REAL ESTATE INVT TR	SH BEN INT	62,808	-3,519	(5.31)	2,018,900
MTD	METTLER TOLEDO INTERNATIONAL	COM	62,012	-105,415	(62.96)	105,300
CS	CREDIT SUISSE GROUP	SPONSORED ADR	61,951	-19,927	(24.34)	4,171,788
FNF	FIDELITY NATIONAL FINANCIAL IN	FNF GROUP COM	61,582	-14,951	(19.54)	1,538,400
OSUR	ORASURE TECHNOLOGIES INC	COM	61,505	-2,828	(4.4)	3,895,203
PAC	GPO AEROPORTUARIO DEL PAC SAB	SPON ADR B	61,243	4,798	8.50	603,800
IMGN	IMMUNOGEN INC	COM	61,012	16,076	35.78	6,525,300
PTR	PETROCHINA CO LTD	SPONSORED  ADR	60,562	1,972	3.37	826,000
HSII	HEIDRICK & STRUGGLES INTL INC	COM	60,524	12,080	24.94	1,467,239
VTR	VENTAS INC	COM	60,239	-66,206	(52.36)	1,023,600
ZTS	ZOETIS INC	CL A	60,169	28,788	91.74	672,800
CDNS	CADENCE DESIGN SYSTEM INC	COM	60,149	-5,601	(8.52)	1,295,200
SNE	SONY CORP	SPONSORED ADR	59,792	3,511	6.24	1,057,700
TFX	TELEFLEX INC	COM	59,730	-9,951	(14.28)	240,700
UNH	UNITEDHEALTH GROUP INC	COM	59,726	-274,450	(82.13)	222,626
SGMS	SCIENTIFIC GAMES CORP	COM	59,696	-19,217	(24.35)	2,198,748
EXC	EXELON CORP	COM	59,446	-5,849	(8.96)	1,348,900
MIME	MIMECAST LTD	ORD SHS	59,313	6,200	11.67	1,411,890
AMG	AFFILIATED MANAGERS GROUP	COM	59,310	59,310	New	415,600
MYL	MYLAN N V	SHS EURO	58,928	4,536	8.34	1,541,013
ANF	ABERCROMBIE & FITCH CO	CL A	58,669	37,275	174.23	2,924,700
OC	OWENS CORNING NEW	COM	58,647	24,816	73.35	1,003,710
CBS	CBS CORP NEW	CL B	58,465	37,650	180.88	1,042,900
SO	SOUTHERN CO	COM	58,462	8,498	17.01	1,318,800
AEM	AGNICO EAGLE MINES LTD	COM	58,216	6,957	13.57	1,755,600
EXPO	EXPONENT INC	COM	58,172	-3,595	(5.82)	1,099,651
WNS	WNS HOLDINGS LTD	SPON ADR	58,047	-7,965	(12.07)	1,151,500
ALE	ALLETE INC	COM NEW	57,962	-748	(1.27)	766,800
ENTG	ENTEGRIS INC	COM	57,908	-2,578	(4.26)	1,844,200
XRAY	DENTSPLY SIRONA INC	COM	57,874	3,723	6.88	1,501,658
MKTX	MARKETAXESS HLDGS INC	COM	57,845	1,458	2.59	309,400
DENN	DENNYS CORP	COM	57,813	-241	(0.42)	3,798,500
WSFS	WSFS FINL CORP	COM	57,683	1,314	2.33	1,172,414
ESNT	ESSENT GROUP LTD	COM	57,015	13,248	30.27	1,283,550
ORLY	O REILLY AUTOMOTIVE INC NEW	COM	57,012	1,600	2.89	164,716
MCO	MOODYS CORP	COM	56,983	-30,321	(34.73)	322,300
LPX	LOUISIANA PAC CORP	COM	56,733	377	.67	1,925,100
PETS	PETMED EXPRESS INC	COM	56,687	659	1.18	1,652,200
HIIQ	HEALTH INS INNOVATIONS INC	COM CL A	56,588	3,231	6.06	1,012,300
BCH	BANCO DE CHILE	SPONSORED ADR	56,534	2,199	4.05	653,192
LMNX	LUMINEX CORP DEL	COM	56,487	-5,105	(8.29)	1,993,200
PEG	PUBLIC SVC ENTERPRISE GROUP	COM	56,480	11,011	24.22	1,075,600
TSU	TIM PARTICIPACOES S A	SPONSORED ADR	56,412	12,469	28.37	3,893,200
CNP	CENTERPOINT ENERGY INC	COM	56,376	-15,529	(21.6)	1,977,400
WRB	W R BERKLEY CORPORATION	COM	56,218	-4,469	(7.37)	715,700
NBHC	NATIONAL BK HLDGS CORP	CL A	56,188	170	.30	1,421,400
DXCM	DEXCOM INC	COM	56,121	33,029	143.03	391,143
ITUB	ITAU UNIBANCO HLDG SA	SPON ADR REP PFD	55,881	43,830	363.70	5,281,803
VCRA	VOCERA COMMUNICATIONS INC	COM	55,315	-1,098	(1.95)	1,632,200
RHP	RYMAN HOSPITALITY PPTYS INC	COM	54,974	17,454	46.52	623,641
CXW	CORECIVIC INC	COM	54,146	7,475	16.02	2,166,703
BWA	BORGWARNER INC	COM	54,031	21,231	64.73	1,237,265
MFA	MFA FINL INC	COM	53,759	11,231	26.41	6,918,754
NVMI	NOVA MEASURING INSTRUMENTS LTD	COM	52,836	1,127	2.18	1,950,400
PRGO	PERRIGO CO PLC	SHS	52,836	46,783	772.89	697,508
SJM	SMUCKER J M CO	COM NEW	52,739	52,739	New	481,503
EGHT	STMICROELECTRONICS N V	NY REGISTRY	52,695	33,707	177.52	2,873,245
RPAI	RETAIL PPTYS AMER INC	CL A	52,509	-10,361	(16.48)	4,124,855
MCY	MERCURY GENL CORP NEW	COM	52,419	2,100	4.17	980,900
VAR	VARIAN MED SYS INC	COM	52,295	-30,910	(37.15)	490,800
CDK	CDK GLOBAL INC	COM	52,260	17,540	50.52	858,700
CSFL	CENTERSTATE BK CORP	COM	52,247	-2,512	(4.59)	1,713,580
LLY	LILLY ELI & CO	COM	52,231	-349,742	(87.01)	488,000
XRX	XEROX CORP	COM NEW	52,230	749	1.45	1,936,584
STWD	STARWOOD PPTY TR INC	COM	51,660	28,301	121.16	2,313,484
MLNX	MELLANOX TECHNOLOGIES LTD	SHS	51,588	21,635	72.23	681,483
SPG	SIMON PPTY GROUP INC NEW	COM	51,183	-16,025	(23.84)	281,705
CAJ	CANON INC	SPONSORED ADR	50,753	20,113	65.65	1,658,600
FDS	FACTSET RESH SYS INC	COM	50,732	11,896	30.63	217,500
MCFT	MCBC HLDGS INC	COM	50,604	6,472	14.66	1,463,800
EL	LAUDER ESTEE COS INC	CL A	50,568	27,768	121.79	364,400
PRA	PROASSURANCE CORP	COM	50,540	15,839	45.64	1,026,200
SWK	STANLEY BLACK & DECKER INC	COM	50,497	12,362	32.42	362,769
ALGT	ALLEGIANT TRAVEL CO	COM	50,475	-22,030	(30.38)	380,800
GOOD	GLADSTONE COML CORP	COM	50,449	-1,326	(2.56)	2,599,100
HPR	HIGHPOINT RES CORP	COM	50,413	3,123	6.60	9,602,500
PRGS	PROGRESS SOFTWARE CORP	COM	50,307	-8,987	(15.16)	1,227,011
LSXMA	LIBERTY MEDIA CORP DELAWARE	COM C SIRIUSXM	50,268	-535	(1.05)	1,081,500
TWLO	TWILIO INC	CL A	50,223	-23,519	(31.89)	610,100
HST	HOST HOTELS & RESORTS INC	COM	49,842	11,444	29.80	2,327,965
BLK	BLACKROCK INC	COM	49,831	43,231	655	105,700
CENT	CENTRAL GARDEN & PET CO	CL A NON-VTG	49,830	1,756	3.65	1,350,400
DLTR	DOLLAR TREE INC	COM	49,583	49,583	New	602,903
MNR	MONMOUTH REAL ESTATE INVT CORP	CL A	49,484	336	.68	2,902,300
INVA	INNOVIVA INC	COM	49,370	15,797	47.05	3,390,800
COUP	COUPA SOFTWARE INC	COM	49,302	-42,203	(46.12)	632,000
ARNC	ARCONIC INC	COM	49,263	40,480	460.87	2,247,400
ALB	ALBEMARLE CORP	COM	49,257	-5,977	(10.82)	506,808
XOXO	XO GROUP INC	COM	49,247	1,215	2.53	1,701,700
TM	TOYOTA MOTOR CORP	SP ADR REP2COM	49,247	8,948	22.20	412,800
EXLS	EXLSERVICE HOLDINGS INC	COM	49,231	38	.08	768,400
AIN	ALBANY INTL CORP	CL A	49,086	-1,238	(2.46)	626,500
BBD	BANCO BRADESCO S A	SP ADR PFD NEW	48,971	-3,484	(6.64)	6,975,960
CP	CANADIAN PAC RY LTD	COM	48,937	-145	(0.3)	235,500
AUO	AU OPTRONICS CORP	SPONSORED ADR	48,903	-39	(0.08)	11,588,400
MLCO	MELCO RESORT ENTERTAINMENT LTD	ADR	48,888	22,658	86.38	2,312,600
ITRI	ITRON INC	COM	48,874	-10,903	(18.24)	742,761
GRMN	GARMIN LTD	SHS	48,722	-4,690	(8.78)	717,342
NWBI	NORTHWEST BANCSHARES INC MD	COM	48,690	-2,456	(4.8)	2,659,200
RMBS	RAMBUS INC DEL	COM	48,213	-2,759	(5.41)	4,163,500
SSRM	SSR MNG INC	COM	48,210	-343	(0.71)	5,794,500
PAYC	PAYCOM SOFTWARE INC	COM	48,103	48,103	New	308,550
AWR	AMERICAN STS WTR CO	COM	47,896	-3,175	(6.22)	783,000
FIT	FITBIT INC	CL A	47,877	5,339	12.55	8,156,285
RMAX	RE MAX HLDGS INC	CL A	47,859	3,112	6.96	998,100
CKH	SEACOR HOLDINGS INC	COM	47,809	15,505	48.00	978,700
KDP	KEURIG DR PEPPER INC	COM	47,698	18,277	62.12	2,084,700
AET	AETNA INC NEW	COM	47,600	-115,634	(70.84)	234,390
BRSS	GLOBAL BRASS & COPPR HLDGS INC	COM	47,531	2,097	4.62	1,276,000
UMC	UNITED MICROELECTRONICS CORP	SPON ADR NEW	47,454	3,337	7.56	17,839,989
OKE	ONEOK INC NEW	COM	47,327	-35,875	(43.12)	718,814
TRV	TRAVELERS COMPANIES INC	COM	47,089	33,199	239.01	361,972
OCFC	OCEANFIRST FINL CORP	COM	46,870	-673	(1.42)	1,602,925
MXIM	MAXIM INTEGRATED PRODS INC	COM	46,652	4,085	9.60	793,800
ESRT	EMPIRE ST RLTY TR INC	CL A	46,609	11,484	32.70	2,697,300
PVH	PVH CORP	COM	46,574	-17,285	(27.07)	351,370
SOHU	SOHU COM LTD	SPONSORED ADS	46,533	-554	(1.18)	2,285,500
KRA	KRATON CORPORATION	COM	46,532	6,748	16.96	993,000
YUM	YUM BRANDS INC	COM	46,472	46,472	New	525,700
ROL	ROLLINS INC	COM	46,380	-31,959	(40.8)	753,775
PK	PARK HOTELS RESORTS INC	COM	46,369	18,346	65.47	1,363,400
LIVN	LIVANOVA PLC	SHS	46,249	4,375	10.45	371,094
TRMB	TRIMBLE INC	COM	46,197	18,669	67.82	1,089,044
NRZ	NEW RESIDENTIAL INVT CORP	COM NEW	46,141	10,377	29.01	2,494,105
SXC	SUNCOKE ENERGY INC	COM	46,068	7,140	18.34	4,098,600
PDM	PIEDMONT OFFICE REALTY TR INC	COM CL A	46,015	-2,488	(5.13)	2,352,526
LNT	ALLIANT ENERGY CORP	COM	45,996	-8,554	(15.68)	1,063,000
ITRN	ITURAN LOCATION AND CONTROL	SHS	45,948	2,717	6.28	1,339,600
DWDP	DOWDUPONT INC	COM	45,775	26,953	143.20	653,935
VST	VISTRA ENERGY CORP	COM	45,587	-41,250	(47.5)	2,026,073
REXR	REXFORD INDL RLTY INC	COM	45,582	-237	(0.52)	1,441,100
APEI	AMERICAN PUBLIC EDUCATION INC	COM	45,573	7,440	19.51	1,383,100
CPS	COOPER STD HLDGS INC	COM	45,457	-3,367	(6.9)	338,900
NCS	NCI BUILDING SYS INC	COM NEW	45,425	3,515	8.39	2,753,000
CE	CELANESE CORP DEL	COM SER A	45,305	28,386	167.77	393,890
IMPV	IMPERVA INC	COM	45,287	-1,182	(2.54)	984,500
WBC	WABCO HLDGS INC	COM	45,285	25,305	126.65	366,500
MERC	MERCER INTL INC	COM	45,281	6,351	16.32	2,632,600
RGS	REGIS CORP MINN	COM	45,208	-1,447	(3.1)	2,081,400
FTS	FORTIS INC	COM	45,208	5,135	12.82	1,395,302
PLT	PLANTRONICS INC NEW	COM	44,838	19,364	76.01	712,500
YELP	YELP INC	CL A	44,794	-22,902	(33.83)	989,700
KMG	KMG CHEMICALS INC	COM	44,686	-7,469	(14.32)	583,900
BB	BLACKBERRY LTD	COM	44,554	-21,204	(32.25)	4,446,500
PPL	PPL CORP	COM	44,551	39,199	732.41	1,497,500
GWW	GRAINGER W W INC	COM	44,534	-46,106	(50.87)	127,500
WLTW	WILLIS TOWERS WATSON PUB LTD	SHS	44,496	-10,300	(18.8)	299,820
KMB	KIMBERLY CLARK CORP	COM	44,479	44,479	New	385,200
WK	WORKIVA INC	COM CL A	44,232	2,573	6.18	1,164,000
ATRI	ATRION CORP	COM	44,212	4,453	11.20	69,500
AME	AMETEK INC NEW	COM	44,179	44,179	New	565,750
FLO	FLOWERS FOODS INC	COM	44,117	14,607	49.50	2,163,682
PFPT	PROOFPOINT INC	COM	43,974	-29,082	(39.81)	376,200
ISCA	INTERNATIONAL SPEEDWAY CORP	CL A	43,944	395	.91	994,200
DVA	DAVITA INC	COM	43,854	-29,418	(40.15)	652,200
MNST	MONSTER BEVERAGE CORP NEW	COM	43,837	-109,469	(71.41)	726,500
CCF	CHASE CORP	COM	43,767	-87	(0.2)	351,400
RELX	RELX PLC	SPONSORED ADR	43,540	3,575	8.94	2,049,928
LB	L BRANDS INC	COM	43,350	-11,229	(20.57)	1,600,233
TRCO	TRIBUNE MEDIA CO	CL A	43,339	13,134	43.48	1,177,700
RACE	FERRARI N V	COM	43,312	-17,847	(29.18)	341,418
CHE	CHEMED CORP NEW	COM	43,237	20,788	92.60	137,900
LBRDK	LIBERTY BROADBAND CORP	COM SER C	43,149	24,554	132.05	541,600
WLL	WHITING PETE CORP NEW	COM NEW	43,039	43,039	New	911,465
APPF	APPFOLIO INC	COM CL A	42,984	1,477	3.56	500,400
NHC	NATIONAL HEALTHCARE CORP	COM	42,975	2,244	5.51	559,200
AWK	AMERICAN WTR WKS CO INC NEW	COM	42,972	-24,410	(36.23)	487,100
CAE	CAE INC	COM	42,878	803	1.91	2,131,100
HTA	HEALTHCARE TR AMER INC	CL A NEW	42,875	-21,629	(33.53)	1,552,300
CNQ	CANADIAN NAT RES LTD	COM	42,859	-20,165	(32)	1,321,600
LNN	LINDSAY CORP	COM	42,758	997	2.39	467,400
OTTR	OTTER TAIL CORP	COM	42,714	1,271	3.07	873,500
XHR	XENIA HOTELS & RESORTS INC	COM	42,710	14,480	51.29	1,786,300
SUPN	SUPERNUS PHARMACEUTICALS INC	COM	42,642	28,004	191.30	884,690
CGNX	COGNEX CORP	COM	42,618	17,717	71.15	803,656
INCY	INCYTE CORP	COM	42,505	-21,173	(33.25)	614,500
FCAU	FIAT CHRYSLER AUTOMOBILES N V	SHS	42,481	-41,768	(49.58)	2,565,300
AGX	ARGAN INC	COM	42,380	-54	(0.13)	1,021,200
NWN	NORTHWEST NAT GAS CO	COM	42,305	4,731	12.59	637,600
IVZ	INVESCO LTD	SHS	42,302	42,302	New	1,758,937
SHEN	SHENANDOAH TELECOMMUNICATIONS	COM	42,101	316	.76	1,145,600
ATNI	ATN INTL INC	COM	42,039	1,432	3.53	572,500
NI	NISOURCE INC	COM	41,794	3,733	9.81	1,528,100
WSBF	WATERSTONE FINL INC MD	COM	41,781	479	1.16	2,450,474
LNC	LINCOLN NATL CORP IND	COM	41,767	39,407	1,669.79	641,974
CERN	CERNER CORP	COM	41,758	-38,504	(47.97)	650,130
HUBS	HUBSPOT INC	COM	41,651	-9,889	(19.19)	274,200
WYNN	WYNN RESORTS LTD	COM	41,544	41,544	New	323,600
NVR	NVR INC	COM	41,376	-50,058	(54.75)	15,870
CZZ	COSAN LTD	SHS A	41,188	-21,918	(34.73)	6,288,299
VIVO	MERIDIAN BIOSCIENCE INC	COM	41,179	3,451	9.15	2,631,276
GGB	GERDAU S A	SPON ADR REP PFD	41,169	-10,950	(21.01)	10,556,099
AXGN	AXOGEN INC	COM	40,980	4,536	12.45	998,300
UTL	UNITIL CORP	COM	40,946	3,520	9.40	783,800
AHH	ARMADA HOFFLER PPTYS INC	COM	40,943	5,776	16.43	2,646,600
ALNY	ALNYLAM PHARMACEUTICALS INC	COM	40,919	15,260	59.47	375,400
SYF	SYNCHRONY FINL	COM	40,865	7,720	23.29	1,287,900
ETFC	E TRADE FINANCIAL CORP	COM NEW	40,860	13,011	46.72	743,040
JOUT	JOHNSON OUTDOORS INC	CL A	40,636	4,470	12.36	397,300
GFI	GOLD FIELDS LTD NEW	SPONSORED ADR	40,574	658	1.65	17,265,700
ETP	ENERGY TRANSFER PARTNERS LP	UNIT LTD PRT INT	40,516	5,537	15.83	1,823,400
CUK	CARNIVAL PLC	ADR	40,363	2,189	5.74	657,600
HPT	HOSPITALITY PPTYS TR	COM SH BEN INT	40,324	714	1.80	1,406,000
KBAL	KIMBALL INTL INC	CL B	40,249	4,677	13.15	2,297,340
REX	REX AMERICAN RESOURCES CORP	COM	39,650	-416	(1.04)	515,000
WSBC	WESBANCO INC	COM	39,619	3,008	8.22	823,682
EBAY	EBAY INC	COM	39,613	-150,073	(79.12)	1,165,440
FIX	COMFORT SYS USA INC	COM	39,096	1,104	2.91	687,100
KLIC	KULICKE & SOFFA INDS INC	COM	38,978	1,872	5.05	1,567,900
AMAG	AMAG PHARMACEUTICALS INC	COM	38,976	2,287	6.23	1,641,100
MKC	MCCORMICK & CO INC	COM NON VTG	38,945	-25,598	(39.66)	298,200
MGRC	MCGRATH RENTCORP	COM	38,686	2,500	6.91	694,795
PJT	PJT PARTNERS INC	COM CL A	38,650	10,549	37.54	705,300
SBSI	SOUTHSIDE BANCSHARES INC	COM	38,640	1,959	5.34	1,062,410
RPD	RAPID7 INC	COM	38,619	8,337	27.53	999,200
HLNE	HAMILTON LANE INC	CL A	38,544	14,507	60.36	794,400
UHT	UNIVERSAL HEALTH RLTY INCM TR	SH BEN INT	38,482	-2,926	(7.07)	510,300
NAVG	NAVIGATORS GROUP INC	COM	38,422	6,964	22.14	548,892
NMIH	NMI HLDGS INC	CL A	38,385	1,657	4.51	1,814,900
SAFT	SAFETY INS GROUP INC	COM	38,288	952	2.55	390,100
JNPR	JUNIPER NETWORKS INC	COM	38,096	-15,516	(28.94)	1,384,791
EBSB	MERIDIAN BANCORP INC MD	COM	38,079	965	2.60	2,151,358
TSG	STARS GROUP INC	COM	38,059	-347	(0.91)	1,566,200
ERIC	ERICSSON	ADR B SEK 10	37,913	37,913	New	4,423,900
NANO	NANOMETRICS INC	COM	37,863	786	2.12	944,910
UCBI	UNITED CMNTY BKS BLAIRSVLE GA	COM	37,803	-13,045	(25.66)	1,255,511
AXS	AXIS CAPITAL HOLDINGS LTD	SHS	37,463	-3,487	(8.52)	676,350
VEDL	VEDANTA LTD	SPONSORED ADR	37,208	6,897	22.75	2,934,360
NHI	NATIONAL HEALTH INVS INC	COM	37,180	-6,015	(13.93)	480,300
THO	THOR INDS INC	COM	37,172	33,081	808.71	386,200
AGR	AVANGRID INC	COM	37,019	15,872	75.05	743,800
LEN	LENNAR CORP	CL A	37,015	-43,855	(54.23)	732,533
GKOS	GLAUKOS CORP	COM	36,980	5,862	18.84	601,200
QADA	QAD INC	CL A	36,846	-312	(0.84)	608,518
HMC	HONDA MOTOR LTD	AMERN SHS	36,816	7,791	26.84	1,285,036
PSMT	PRICESMART INC	COM	36,797	-15,426	(29.54)	419,100
AZN	ASTRAZENECA PLC	SPONSORED ADR	36,626	-1,707	(4.45)	985,100
AHT	ASHFORD HOSPITALITY TR INC	COM SHS	36,568	8,775	31.57	5,695,928
SASR	SANDY SPRING BANCORP INC	COM	36,510	8,517	30.43	929,710
QDEL	QUIDEL CORP	COM	36,477	-4,772	(11.57)	507,687
AXTA	AXALTA COATING SYS LTD	COM	36,474	31,202	591.91	1,240,597
HPP	HUDSON PAC PPTYS INC	COM	36,417	22,521	162.06	1,105,900
DEA	EASTERLY GOVT PPTYS INC	COM	36,365	4,545	14.29	1,832,900
WLK	WESTLAKE CHEM CORP	COM	36,157	11,401	46.05	405,300
OFIX	ORTHOFIX MED INC	COM	36,138	1,121	3.20	677,500
DKS	DICKS SPORTING GOODS INC	COM	36,115	-301	(0.83)	948,400
UHS	UNIVERSAL HLTH SVCS INC	CL B	36,045	36,045	New	284,000
I	INTELSAT S A	COM	35,974	5,281	17.21	1,640,400
SMTC	SEMTECH CORP	COM	35,793	-21,746	(37.79)	630,721
MNTA	MOMENTA PHARMACEUTICALS INC	COM	35,772	-1,165	(3.15)	1,378,500
SJI	SOUTH JERSEY INDS INC	COM	35,657	1,276	3.71	1,064,400
BMTC	BRYN MAWR BK CORP	COM	35,585	2,318	6.97	733,719
BGNE	BEIGENE LTD	SPONSORED ADR	35,501	35,501	New	217,116
BUD	ANHEUSER BUSCH INBEV SA/NV	SPONSORED ADR	35,474	12,303	53.10	395,300
PAGP	PLAINS GP HLDGS L P	LTD PARTNR INT A	35,300	22,069	166.79	1,432,061
RDWR	RADWARE LTD	ORD	35,152	-274	(0.77)	1,295,200
FORR	FORRESTER RESH INC	COM	35,098	1,708	5.12	733,500
USM	UNITED STATES CELLULAR CORP	COM	35,041	2,768	8.58	828,000
USFD	US FOODS HLDG CORP	COM	34,953	-24,743	(41.45)	1,108,900
ETN	EATON CORP PLC	SHS	34,866	2,439	7.52	416,011
FRME	FIRST MERCHANTS CORP	COM	34,860	-421	(1.19)	729,129
XYL	XYLEM INC	COM	34,835	29,501	553.10	442,800
BRX	BRIXMOR PPTY GROUP INC	COM	34,449	-16,128	(31.89)	1,914,900
NXRT	NEXPOINT RESIDENTIAL TR INC	COM	34,367	2,343	7.32	1,078,000
TDC	TERADATA CORP DEL	COM	34,254	-6,457	(15.86)	883,300
AMWD	AMERICAN WOODMARK CORPORATION	COM	34,141	-29,947	(46.73)	406,200
MBUU	MALIBU BOATS INC	COM CL A	34,027	8,079	31.13	649,500
IDCC	INTERDIGITAL INC	COM	33,985	-6,455	(15.96)	416,995
